<?xml version="1.0" encoding="utf-8"?>
<!-- Generator: Adobe Illustrator 19.0.0, SVG Export Plug-In . SVG Version: 6.00 Build 0)  -->
<svg version="1.1" id="Layer_1" xmlns="http://www.w3.org/2000/svg" xmlns:xlink="http://www.w3.org/1999/xlink" x="0px" y="0px"
	 viewBox="0 0 100 40" style="enable-background:new 0 0 100 40;" xml:space="preserve">
<style type="text/css">
	.st0{fill:#FFFFFF;}
	.st1{fill:#448AFF;}
</style>
<g id="XMLID_195_">
	<g id="XMLID_1294_">
		<g id="XMLID_1316_">
			<path id="XMLID_1322_" class="st0" d="M34.9,19.3c0,2.7-1.6,4.7-4.4,4.7c-2.7,0-4.4-2-4.4-4.6c0-2.7,1.7-4.7,4.5-4.7
				C33.2,14.7,34.9,16.5,34.9,19.3z M28.6,19.3c0,1.7,0.7,2.7,1.9,2.7c1.2,0,1.9-1,1.9-2.7c0-1.9-0.7-2.7-1.9-2.7
				C29.3,16.6,28.6,17.4,28.6,19.3z"/>
			<path id="XMLID_1319_" class="st0" d="M44.9,19.3c0,2.7-1.6,4.7-4.4,4.7c-2.7,0-4.4-2-4.4-4.6c0-2.7,1.7-4.7,4.5-4.7
				C43.2,14.7,44.9,16.5,44.9,19.3z M38.6,19.3c0,1.7,0.7,2.7,1.9,2.7c1.2,0,1.9-1,1.9-2.7c0-1.9-0.7-2.7-1.9-2.7
				C39.4,16.6,38.6,17.4,38.6,19.3z"/>
			<path id="XMLID_1317_" class="st0" d="M49,18.6c0.7-0.9,1.8-2.3,3.1-3.8h2.8l-3.1,3.4l3.4,5.5h-2.8l-2.2-3.9L49,20.9v2.8h-2.5
				V11.2H49V18.6z"/>
		</g>
		<g id="XMLID_1295_">
			<path id="XMLID_1314_" class="st1" d="M59.3,20.3c0.3,1.2,1.1,1.7,2.5,1.7c1.4,0,2-0.5,2-1.4c0-1-0.6-1.4-2.6-1.9
				c-3.2-0.8-4-1.9-4-3.5c0-2.1,1.5-3.4,4.3-3.4c3.1,0,4.4,1.7,4.6,3.4h-2.6c-0.1-0.7-0.5-1.5-2.1-1.5c-1,0-1.7,0.4-1.7,1.3
				c0,0.8,0.5,1.2,2.4,1.6c3.4,0.8,4.2,2.1,4.2,3.8c0,2.1-1.6,3.6-4.7,3.6c-3,0-4.6-1.5-4.9-3.6H59.3z"/>
			<path id="XMLID_1312_" class="st0" d="M67.1,14.9h1.4v-2.4h2.5v2.4h1.7v1.9h-1.7v4.4c0,0.7,0.2,0.9,0.9,0.9c0.1,0,0.4,0,0.5,0
				v1.7c-0.5,0.2-1.1,0.2-1.6,0.2c-1.7,0-2.3-0.9-2.3-2.5v-4.7h-1.4V14.9z"/>
			<path id="XMLID_1304_" class="st0" d="M82.2,19.3c0,2.7-1.6,4.7-4.4,4.7c-2.7,0-4.4-2-4.4-4.6c0-2.7,1.7-4.7,4.5-4.7
				C80.5,14.7,82.2,16.5,82.2,19.3z M75.9,19.3c0,1.7,0.7,2.7,1.9,2.7c1.2,0,1.9-1,1.9-2.7c0-1.9-0.7-2.7-1.9-2.7
				C76.7,16.6,75.9,17.4,75.9,19.3z"/>
			<path id="XMLID_1301_" class="st0" d="M83.9,17.3c0-0.9,0-1.7,0-2.4h2.4c0,0.2,0.1,1.1,0.1,1.6c0.4-1,1.3-1.7,2.8-1.8V17
				c-1.8-0.1-2.8,0.4-2.8,2.9v3.9h-2.5V17.3z"/>
			<path id="XMLID_1296_" class="st0" d="M92.4,19.8c0,1.1,0.6,2.2,1.8,2.2c1,0,1.3-0.4,1.6-0.9h2.5c-0.3,1.1-1.3,2.9-4.1,2.9
				c-2.9,0-4.2-2.2-4.2-4.5c0-2.8,1.4-4.8,4.3-4.8c3,0,4.1,2.2,4.1,4.4c0,0.3,0,0.5,0,0.8H92.4z M95.9,18.3c0-1-0.4-1.9-1.6-1.9
				c-1.2,0-1.6,0.8-1.7,1.9H95.9z"/>
		</g>
	</g>
	<g id="XMLID_1239_">
		<path id="XMLID_1293_" class="st1" d="M22.4,7.3L8.3,11c-0.7,0.2-1.5,0.1-2.2-0.2L4.5,10l12.9-3.4V5c0-0.2-0.2-0.3-0.4-0.3
			L2.4,8.5C2,8.6,1.7,9,1.7,9.4v1.3v19.9c0,0.5,0.3,0.9,0.7,1.1l3.5,1.6c0.9,0.4,1.8,0.5,2.8,0.2L22.3,30c0.4-0.1,0.6-0.4,0.6-0.8
			V7.8C23,7.5,22.7,7.2,22.4,7.3z"/>
		<g id="XMLID_1283_">
			<path id="XMLID_1287_" class="st0" d="M10.4,13.3l6-1.4c3.3-0.8,4.6,0.7,4.6,2.5c0,1.6-0.8,2.7-1.8,3.4c0.9,0.1,2.2,0.8,2.2,2.7
				c0,2.4-1.9,4.5-4.8,5.2L10.4,27V13.3z M16,17.4c1.4-0.3,2-1.1,2-2.1c0-1-0.8-1.3-1.9-1.1l-2.9,0.7V18L16,17.4z M13.3,24l2.7-0.6
				c1.6-0.4,2.3-1.2,2.3-2.5c0-1.1-0.7-1.7-2.4-1.3l-2.7,0.6V24z"/>
			<polygon id="XMLID_1285_" class="st0" points="10.4,28.6 21.4,25.8 21.4,27.2 10.4,30 			"/>
		</g>
	</g>
</g>
</svg>
